as00001
as00003
as00005
as00006
as00009
as00011
as00012
as00016
as00017
de00001
de00002
de00003
ec00001
ec00002
ec00003
ec00005
ec00006
ec00007
ec00010
ec00011
ec00012
ec00013
ec00014
ec00015
ec00016
in00003
li00001
li00002
li00003
li00004
li00005
li00006
li00007
li00008
li00009
li00010
li00011
li00012
li00013
li00014
li00015
li00017
li00019
li00020
li00021
li00022
li00023
li00024
li00026
li00028
li00029
li00030
li00031
li00032
li00033
li00036
li00037
li00038
li00039
li00040
li00043
li00044
li00045
li00046
ma00001
ma00002
ma00003
ma00004
ma00006
ma00008
ma00009
ma00010
ma00011
ma00012
ma00013
ma00014
ma00015
ma00016
ma00017
ma00018
ma00019
ma00020
ma00024
ma00025
ma00026
ma00027
ma00028
ma00029
ma00030
me00001
me00002
me00003
me00004
me00006
me00007
me00008
me00009
me00010
me00012
me00013
me00015
me00016
me00019
me00020
me00021
me00022
me00023
me00024
me00025
me00026
me00027
me00028
me00029
me00030
me00031
me00032
ps00001
ps00002
ps00003
se00002
se00003
se00004
se00005
se00006
se00007
se00008
se00009
se00010
se00011
se00012
se00013
se00014
se00017
se00018
se00019
se00020
se00021
se00022
se00023
se00024
se00025
se00034
se00037
se00038
se00041
